(module esp8266_shield (layer F.Cu) (tedit 5BB51D13)
  (fp_text reference REF** (at 0 -5.08) (layer F.SilkS)
    (effects (font (size 1 1) (thickness 0.15)))
  )
  (fp_text value esp8266_shield (at -1.27 -8.89) (layer F.Fab)
    (effects (font (size 1 1) (thickness 0.15)))
  )
  (pad 1 thru_hole rect (at -12.7 -15.24) (size 1.524 1.524) (drill 0.762) (layers *.Cu *.Mask))
  (pad 2 thru_hole circle (at -12.7 -12.7) (size 1.524 1.524) (drill 0.762) (layers *.Cu *.Mask))
  (pad 3 thru_hole circle (at -12.7 -10.16) (size 1.524 1.524) (drill 0.762) (layers *.Cu *.Mask))
  (pad 4 thru_hole circle (at -12.7 -7.62) (size 1.524 1.524) (drill 0.762) (layers *.Cu *.Mask))
  (pad 5 thru_hole circle (at -12.7 -5.08) (size 1.524 1.524) (drill 0.762) (layers *.Cu *.Mask))
  (pad 6 thru_hole circle (at -12.7 -2.54) (size 1.524 1.524) (drill 0.762) (layers *.Cu *.Mask))
  (pad 7 thru_hole circle (at -12.7 0) (size 1.524 1.524) (drill 0.762) (layers *.Cu *.Mask))
  (pad 8 thru_hole circle (at -12.7 2.54) (size 1.524 1.524) (drill 0.762) (layers *.Cu *.Mask))
  (pad 9 thru_hole circle (at -10.16 15.24) (size 1.524 1.524) (drill 0.762) (layers *.Cu *.Mask))
  (pad 10 thru_hole circle (at -7.62 15.24) (size 1.524 1.524) (drill 0.762) (layers *.Cu *.Mask))
  (pad 11 thru_hole circle (at -5.08 15.24) (size 1.524 1.524) (drill 0.762) (layers *.Cu *.Mask))
  (pad 12 thru_hole circle (at -2.54 15.24) (size 1.524 1.524) (drill 0.762) (layers *.Cu *.Mask))
  (pad 13 thru_hole circle (at 0 15.24) (size 1.524 1.524) (drill 0.762) (layers *.Cu *.Mask))
  (pad 14 thru_hole circle (at 2.54 15.24) (size 1.524 1.524) (drill 0.762) (layers *.Cu *.Mask))
  (pad 15 thru_hole circle (at 5.08 15.24) (size 1.524 1.524) (drill 0.762) (layers *.Cu *.Mask))
  (pad 16 thru_hole rect (at 7.62 15.24) (size 1.524 1.524) (drill 0.762) (layers *.Cu *.Mask))
  (pad 17 thru_hole circle (at -10.16 17.78) (size 1.524 1.524) (drill 0.762) (layers *.Cu *.Mask))
  (pad 18 thru_hole circle (at -7.62 17.78) (size 1.524 1.524) (drill 0.762) (layers *.Cu *.Mask))
  (pad 19 thru_hole circle (at -5.08 17.78) (size 1.524 1.524) (drill 0.762) (layers *.Cu *.Mask))
  (pad 20 thru_hole circle (at -2.54 17.78) (size 1.524 1.524) (drill 0.762) (layers *.Cu *.Mask))
  (pad 21 thru_hole circle (at 0 17.78) (size 1.524 1.524) (drill 0.762) (layers *.Cu *.Mask))
  (pad 22 thru_hole circle (at 2.54 17.78) (size 1.524 1.524) (drill 0.762) (layers *.Cu *.Mask))
  (pad 23 thru_hole circle (at 5.08 17.78) (size 1.524 1.524) (drill 0.762) (layers *.Cu *.Mask))
  (pad 24 thru_hole circle (at 7.62 17.78) (size 1.524 1.524) (drill 0.762) (layers *.Cu *.Mask))
  (pad 25 thru_hole rect (at 10.16 2.54) (size 1.524 1.524) (drill 0.762) (layers *.Cu *.Mask))
  (pad 26 thru_hole circle (at 10.16 0) (size 1.524 1.524) (drill 0.762) (layers *.Cu *.Mask))
  (pad 27 thru_hole circle (at 10.16 -2.54) (size 1.524 1.524) (drill 0.762) (layers *.Cu *.Mask))
  (pad 28 thru_hole circle (at 10.16 -5.08) (size 1.524 1.524) (drill 0.762) (layers *.Cu *.Mask))
  (pad 29 thru_hole circle (at 10.16 -7.62) (size 1.524 1.524) (drill 0.762) (layers *.Cu *.Mask))
  (pad 30 thru_hole circle (at 10.16 -10.16) (size 1.524 1.524) (drill 0.762) (layers *.Cu *.Mask))
  (pad 31 thru_hole circle (at 10.16 -12.7) (size 1.524 1.524) (drill 0.762) (layers *.Cu *.Mask))
  (pad 32 thru_hole circle (at 10.16 -15.24) (size 1.524 1.524) (drill 0.762) (layers *.Cu *.Mask))
)
